<?xml version="1.0" encoding="UTF-8" standalone="no"?>
<!-- Uploaded to: SVG Repo, www.svgrepo.com, Generator: SVG Repo Mixer Tools -->

<svg
   xmlns:dc="http://purl.org/dc/elements/1.1/"
   xmlns:cc="http://creativecommons.org/ns#"
   xmlns:rdf="http://www.w3.org/1999/02/22-rdf-syntax-ns#"
   xmlns:svg="http://www.w3.org/2000/svg"
   xmlns="http://www.w3.org/2000/svg"
   xmlns:sodipodi="http://sodipodi.sourceforge.net/DTD/sodipodi-0.dtd"
   xmlns:inkscape="http://www.inkscape.org/namespaces/inkscape"
   width="934.89435"
   height="934.89435"
   viewBox="-1.5 0 21.035123 21.035122"
   id="meteor-icon-kit__solid-redo-s"
   version="1.1"
   sodipodi:docname="entendre.svg"
   style="fill:none"
   inkscape:version="0.92.5 (2060ec1f9f, 2020-04-08)">
  <metadata
     id="metadata9">
    <rdf:RDF>
      <cc:Work
         rdf:about="">
        <dc:format>image/svg+xml</dc:format>
        <dc:type
           rdf:resource="http://purl.org/dc/dcmitype/StillImage" />
        <dc:title></dc:title>
      </cc:Work>
    </rdf:RDF>
  </metadata>
  <defs
     id="defs7" />
  <sodipodi:namedview
     pagecolor="#ffffff"
     bordercolor="#666666"
     borderopacity="1"
     objecttolerance="10"
     gridtolerance="10"
     guidetolerance="10"
     inkscape:pageopacity="0"
     inkscape:pageshadow="2"
     inkscape:window-width="1398"
     inkscape:window-height="851"
     id="namedview5"
     showgrid="false"
     fit-margin-top="0"
     fit-margin-left="0"
     fit-margin-right="0"
     fit-margin-bottom="0"
     inkscape:zoom="0.417193"
     inkscape:cx="107.37908"
     inkscape:cy="499.86031"
     inkscape:window-x="42"
     inkscape:window-y="25"
     inkscape:window-maximized="1"
     inkscape:current-layer="meteor-icon-kit__solid-redo-s" />
  <style
     id="style850"
     type="text/css">
	.linesandangles_een{fill:#111918;}
</style>
  <circle
     style="opacity:1;vector-effect:none;fill:#00ff00;fill-opacity:1;stroke:none;stroke-width:0.20184577;stroke-linecap:butt;stroke-linejoin:miter;stroke-miterlimit:4;stroke-dasharray:none;stroke-dashoffset:0;stroke-opacity:1"
     id="path816"
     cx="9.017561"
     cy="10.517561"
     r="10.517561" />
  <path
     id="path852"
     d="m 15.79604,8.867486 c 0,2.340808 -1.543759,5.212283 -2.996626,6.72458 -0.368461,0.383843 -0.630648,0.830608 -0.908217,1.302547 -0.676794,1.153624 -1.443779,2.460364 -3.7859851,2.460364 -2.5281844,0 -3.5496661,-1.445874 -4.2250605,-2.403033 -0.1664016,-0.23562 -0.324413,-0.459352 -0.4642463,-0.598487 l 0.9886208,-0.98862 c 0.2244323,0.224432 0.4153048,0.49431 0.6173636,0.780968 0.6292496,0.890038 1.279474,1.81084 3.0833224,1.81084 1.5416612,0 1.9548681,-0.70406 2.5799231,-1.769588 0.291552,-0.497108 0.622956,-1.060636 1.105382,-1.563335 1.253605,-1.305345 2.607191,-3.877577 2.607191,-5.756236 0,-2.6987811 -2.195383,-4.8941625 -4.8941639,-4.8941625 -2.6987811,0 -4.8941626,2.1953814 -4.8941626,4.8941625 H 3.2110494 c 0,-3.469262 2.8232326,-6.2924946 6.2924947,-6.2924946 3.4692629,0 6.2924959,2.8232326 6.2924959,6.2924946 z M 6.7068797,11.66415 H 6.0077138 v 1.398333 h 0.6991659 c 0.8431944,0 2.0974982,-0.558632 2.0974982,-2.097499 0,-1.145933 -0.694971,-1.747915 -1.3983322,-1.9807374 V 8.8716815 c 0.00421,-0.3516805 0.1237537,-2.1016933 2.0974984,-2.1016933 1.9737459,0 2.0933029,1.7500128 2.0974979,2.100994 l 0.699167,-0.00349 h 0.699166 c 0,-1.2088581 -0.73063,-3.4958303 -3.4958309,-3.4958303 -2.7652018,0 -3.4958303,2.2869722 -3.4958303,3.4958303 l 0.0098,1.3808528 0.6809877,0.01748 c 0.3230146,0.0084 0.707556,0.136338 0.707556,0.699166 0,0.562829 -0.3845414,0.690776 -0.6991661,0.699166 z"
     class="linesandangles_een"
     inkscape:connector-curvature="0"
     style="fill:#800000;fill-opacity:1;stroke-width:0.69916606" />
</svg>
