<?xml version="1.0" encoding="UTF-8" standalone="no"?>
<!-- Uploaded to: SVG Repo, www.svgrepo.com, Generator: SVG Repo Mixer Tools -->

<svg
   xmlns:dc="http://purl.org/dc/elements/1.1/"
   xmlns:cc="http://creativecommons.org/ns#"
   xmlns:rdf="http://www.w3.org/1999/02/22-rdf-syntax-ns#"
   xmlns:svg="http://www.w3.org/2000/svg"
   xmlns="http://www.w3.org/2000/svg"
   xmlns:sodipodi="http://sodipodi.sourceforge.net/DTD/sodipodi-0.dtd"
   xmlns:inkscape="http://www.inkscape.org/namespaces/inkscape"
   width="800px"
   height="800px"
   viewBox="0 0 64 64"
   aria-hidden="true"
   role="img"
   class="iconify iconify--emojione"
   preserveAspectRatio="xMidYMid meet"
   version="1.1"
   id="svg8"
   sodipodi:docname="it.svg"
   inkscape:version="0.92.5 (2060ec1f9f, 2020-04-08)">
  <metadata
     id="metadata14">
    <rdf:RDF>
      <cc:Work
         rdf:about="">
        <dc:format>image/svg+xml</dc:format>
        <dc:type
           rdf:resource="http://purl.org/dc/dcmitype/StillImage" />
      </cc:Work>
    </rdf:RDF>
  </metadata>
  <defs
     id="defs12" />
  <sodipodi:namedview
     pagecolor="#ffffff"
     bordercolor="#666666"
     borderopacity="1"
     objecttolerance="10"
     gridtolerance="10"
     guidetolerance="10"
     inkscape:pageopacity="0"
     inkscape:pageshadow="2"
     inkscape:window-width="1398"
     inkscape:window-height="851"
     id="namedview10"
     showgrid="false"
     inkscape:zoom="0.59"
     inkscape:cx="499.72723"
     inkscape:cy="503.62426"
     inkscape:window-x="42"
     inkscape:window-y="25"
     inkscape:window-maximized="1"
     inkscape:current-layer="svg8" />
  <path
     d="M1.7 32c0 13.1 8.4 24.2 20 28.3V3.7C10.1 7.8 1.7 18.9 1.7 32z"
     fill="#75a843"
     id="path2"
     style="fill:#009344;fill-opacity:1" />
  <path
     d="M61.7 32c0-13.1-8.4-24.2-20-28.3v56.6c11.7-4.1 20-15.2 20-28.3"
     fill="#ed4c5c"
     id="path4"
     style="fill:#cf2734;fill-opacity:1" />
  <path
     d="M21.7 60.3c3.1 1.1 6.5 1.7 10 1.7s6.9-.6 10-1.7V3.7C38.6 2.6 35.2 2 31.7 2s-6.9.6-10 1.7v56.6"
     fill="#ffffff"
     id="path6" />
</svg>
